strategic_region={
	id=105
	name="STRATEGICREGION_105"
	provinces={
		102 138 158 314 331 580 584 597 622 624 627 840 1037 1190 1343 1467 1589 1910 1939 1964 1991 2204 2468 2508 2567 2612 2640 2791 2944 2963 3001 3075 3122 3168 3172 3262 3312 3372 3399 3468 3621 3683 3747 3876 3912 3940 4305 4550 4832 4908 5010 5229 5243 5268 5514 5671 5777 5824 5960 6016 6017 6054 6126 6175 6257 6317 6352 6378 6606 6652 6736 6752 6922 6969 7169 7287 7319 7343 7380 7393 7402 7459 7531 7539 7637 7645 7866 7996 8127 8178 8321 8436 8492 8659 8721 8739 8848 8878 9077 9139 9229 9284 9378 9467 11363 11394 11456 11462 11463 11500 11548 11555 11584 11588 11640 11648 11659 11678 11706 11716 11726 11727 11773 11805 11860 11882 11887 11900 11905 11926 11941 11998 12033 12037 12079 12135 
	}
	weather={
	}
}
