strategic_region={
	id=108
	name="STRATEGICREGION_108"
	provinces={
		43 132 244 278 300 340 379 535 625 710 767 865 866 973 1021 1086 1168 1176 1196 1208 1257 1351 1397 1449 1476 1514 1529 1538 1743 1820 1956 2006 2028 2171 2279 2337 2504 2564 2569 2583 2679 2706 2749 2818 2826 3020 3128 3547 3568 3578 3678 3708 3713 3719 3793 3893 3994 4037 4144 4327 4414 4465 4596 4622 4636 4675 4688 4691 4697 4738 4765 4775 4833 4891 5014 5086 5111 5219 5231 5438 5457 5552 5554 5890 5901 5912 5919 5934 6049 6060 6061 6100 6131 6154 6164 6174 6226 6241 6328 6354 6371 6409 6443 6678 6684 6875 7193 7197 7202 7247 7281 7296 7363 7524 7593 7622 7761 7833 7840 7978 7982 7990 8042 8063 8143 8214 8218 8239 8328 8464 8467 8556 8647 8733 8744 8811 8872 8890 8907 8950 9183 9250 9251 9328 9330 9434 12010 12032 12061 12078 12106 12174 12205 12230 12233 12248 12249 12262 12270 12277 12306 12318 12322 12323 12334 12342 12351 12359 12368 12391 12399 12400 12401 12416 12441 12442 12445 12450 12455 12469 12475 12481 12482 12487 12496 12522 12530 12569 12572 12591 12616 12617 12628 12632 12637 12638 12645 12663 12668 12685 12693 12701 12725 12731 12742 12745 12748 12762 12768 12777 12789 
	}
	weather={
	}
}
