strategic_region={
	id=11
	name="STRATEGICREGION_11"
	provinces={
		13135 13154 13195 13210 13216 13237 13369 13376 13452 13495 13513 13586 13625 13635 13663 13673 13689 13734 13755 13823 13840 13844 13853 13916 13965 13974 13978 13980 13982 
	}
	weather={
	}
}
