strategic_region={
	id=115
	name="STRATEGICREGION_115"
	provinces={
		4 42 133 141 250 251 290 327 363 406 421 486 487 608 653 671 733 795 875 900 907 931 935 994 1062 1118 1198 1206 1226 1241 1399 1419 1524 1608 1670 1683 1724 1841 1880 1938 2055 2213 2214 2299 2343 2449 2507 2651 2683 2799 2805 2879 2880 2896 3007 3113 3340 3381 3390 3398 3571 3646 3664 3699 3813 3883 3894 3906 3921 3945 3995 4004 4101 4248 4252 4287 4289 4310 4369 4516 4518 4668 4698 4705 4717 4755 4770 4879 4883 4885 4906 4968 5004 5005 5199 5378 5836 5862 5880 5914 5995 6035 6036 6086 6137 6141 6252 6286 6327 6405 6413 6414 6432 6444 6486 6732 6813 7034 7063 7109 7131 7168 7233 7272 7329 7429 7457 7474 7484 7642 7732 7788 7863 7950 7955 8008 8009 8022 8055 8202 8225 8276 8314 8573 8586 8895 8904 8974 9050 9170 9242 9266 9269 9291 9310 9362 10931 10961 11016 11017 11054 11055 11110 11115 11129 11133 11142 11151 11158 11169 11174 11179 11201 11207 11230 11231 11233 11237 11250 11255 11270 11273 11285 11287 11300 11303 11312 11313 11328 11344 11365 11379 11383 11388 11412 11423 11424 11429 11447 11459 11472 11504 11505 11508 11523 11529 11551 11564 11578 11593 11601 11602 11615 
	}
	weather={
	}
}
