
strategic_region={
	id=18
	name="STRATEGICREGION_18"
	provinces={
		12955 12971 12986 13088 13102 13104 13143 13163 13181 13186 13257 13295 13310 13512 13531 13554 13577 13579 13587 13595 13647 13652 13653 13701 13754 13794 13815 13822 13849 13850 13873 13876 13882 13994 13998 14004 14006 
	}
	naval_terrain=water_shallow_sea
	weather={
	}
}
