strategic_region={
	id=31
	name="STRATEGICREGION_31"
	provinces={
		12938 12951 12952 12969 12980 13055 13086 13094 13131 13150 13175 13182 13198 13228 13273 13325 13359 13433 13458 13650 13678 13731 13743 13751 13833 13869 13909 13921 13935 13936 
	}
	weather={
	}
}
