strategic_region={
	id=37
	name="STRATEGICREGION_37"
	provinces={
		48 555 714 858 929 1187 2094 2315 2590 2597 2686 2793 3784 4129 4488 4841 4921 5122 5510 5621 5727 6092 6340 6975 6983 7068 7468 7895 7924 7993 7994 8472 8476 8964 9000 9122 9273 9399 9406 9424 9462 10101 10151 10168 10184 10207 10213 10248 10306 10313 10375 10400 10436 10448 10470 10489 14073 
	}
	weather={
	}
}
