strategic_region={
	id=39
	name="STRATEGICREGION_39"
	provinces={
		287 374 394 604 721 822 1096 1165 1305 1441 1637 1667 1760 1864 2070 2144 2256 2355 2531 2887 2964 3019 3104 3178 3307 3395 3416 3444 3854 3938 4207 4278 4300 4528 4536 4557 4739 4970 4972 5082 5166 5176 5302 5334 5496 5881 5988 6013 6123 6249 6494 6513 6806 6835 7082 7118 7177 7338 7357 7412 7428 7610 7652 7776 8191 8309 8341 8500 8607 8759 8790 8821 8854 8996 9217 9255 9990 9993 10006 10030 10036 10046 10060 10108 10118 10134 10139 10152 10156 10185 10193 10233 10237 10274 10289 10294 10300 10308 10370 10371 10376 10389 10434 10437 10472 10504 10531 14055 14056 14060 14061 14063 14067 14072 14079 14087 
	}
	weather={
	}
}
