strategic_region={
	id=45
	name="STRATEGICREGION_45"
	provinces={
		68 216 385 401 654 681 804 1058 1185 1372 1548 2009 2054 2238 2680 2705 2750 3040 3076 3188 3226 3278 3414 3542 3612 3933 3957 3973 3981 4320 4331 4609 4718 4721 4745 4884 4903 4922 5129 5406 5656 5711 5789 5863 6023 6090 6349 6464 6517 6580 6632 6707 6873 7103 7378 7427 7450 7529 7669 7688 7887 8053 8330 8383 8448 8536 8711 8796 8949 9144 9267 9335 10023 10035 10069 10071 10086 10116 10137 10138 10155 10163 10170 10186 10191 10383 10402 10469 10480 10518 14083 14084 
	}
	weather={
	}
}
