strategic_region={
	id=48
	name="STRATEGICREGION_48"
	provinces={
		6 52 347 349 506 564 581 703 753 842 957 1011 1022 1026 1178 1266 1317 1396 1468 1532 1566 1581 1582 1643 2034 2128 2203 2288 2429 2533 2572 2758 2915 3036 3082 3126 3715 3735 3895 4117 4186 4323 4541 4555 4612 4614 4655 5189 5195 5218 5294 5412 5462 5627 5713 5720 5768 6055 6181 6192 6235 6561 6838 6910 6947 7136 7149 7292 7349 7423 7425 7472 7683 7789 8068 8094 8098 8230 8258 8336 8380 8450 8498 8572 8580 8702 8705 8762 8881 9007 9052 9222 9420 11096 11119 11150 11184 11194 11218 11222 11227 11246 11275 11279 11290 11315 11321 11327 11338 11373 11387 11406 11468 11470 11489 11495 11502 
	}
	weather={
	}
}
