
strategic_region={
	id=51
	name="STRATEGICREGION_51"
	provinces={
		27 247 593 791 855 868 1401 1508 1659 2312 2592 2702 2718 2757 2947 3107 3365 3548 3878 4053 4211 4364 4758 5066 5431 5975 6297 6314 6326 6451 6478 6663 6722 6784 7143 7222 7420 7519 7740 7798 7997 8101 8155 8376 8989 9065 9142 9280 9333 9570 9581 9592 9596 9597 9601 9612 9645 9654 9687 9696 9711 9729 9769 9787 9796 9827 9860 12827 12840 12846 
	}
	weather={
	}
}
