strategic_region={
	id=77
	name="STRATEGICREGION_77"
	provinces={
		128 162 199 254 318 322 376 411 450 523 541 554 562 764 903 919 941 950 999 1002 1027 1237 1244 1262 1314 1411 1454 1455 1483 1497 1618 1642 1676 1957 2051 2131 2149 2153 2168 2250 2301 2500 2543 2586 2630 2731 2848 2885 2893 3033 3261 3293 3373 3460 3493 3512 3588 3690 3766 3804 3806 3996 4022 4241 4382 4426 4456 4531 4604 4699 4708 4904 4915 4930 5049 5117 5289 5459 5482 5566 5596 5696 5707 5744 5860 5931 6010 6064 6091 6204 6382 6416 6468 6492 6577 6610 6634 6687 6729 6826 6848 6903 7006 7009 7067 7069 7157 7158 7346 7491 7585 7598 7644 7668 7745 7851 7857 7889 7962 8091 8115 8241 8299 8375 8403 8493 8534 8616 8707 8771 8778 8783 8955 9016 9083 9089 9103 9134 9174 9247 9387 9410 10001 10012 10017 10022 10031 10051 10056 10073 10090 10091 10094 10109 10171 10178 10190 10218 10254 10255 10302 10337 10340 10362 10378 10398 10412 10413 10463 10506 10525 10548 10562 10594 10616 10617 10625 10633 10659 10665 10668 10680 10695 10708 10714 10721 10727 10734 10753 10762 10780 10803 10811 10850 10883 10896 
	}
	weather={
	}
}
