strategic_region={
	id=90
	name="STRATEGICREGION_90"
	provinces={
		94 105 222 237 324 345 576 579 601 669 833 859 860 1256 1283 1384 1459 1506 1545 1803 1881 1960 2264 2272 2358 2399 2691 2973 3058 3194 3212 3264 3593 3611 3642 3687 3707 3769 4161 4325 4342 4394 4403 4476 4629 4685 4824 4992 5020 5076 5320 5352 5653 5771 5858 5956 6997 7385 7471 7483 7555 7824 7910 7943 8017 8076 8153 8251 8266 8349 8407 8617 8699 8747 9070 9178 9208 9298 9453 10563 10568 10618 10636 10643 10669 10682 10683 10693 10715 10730 10781 10827 10836 10841 10872 10886 10897 10903 10917 10929 10930 10946 10960 10977 11029 11099 
	}
	weather={
	}
}
