
state={
	id=171
	name="STATE_171"

	history={
		owner = KOR
		buildings = {
			infrastructure = 4

		}
		add_core_of = KOR

	}

	provinces={
		375 1102 2654 3530 4746 5371 5850 5891 6574 6943 7394 7454 7627 7658 7799 8267 8784 9162 9778 9789 9890 9908 9924 
	}
	manpower=322900
	buildings_max_level_factor=1.000
	state_category=town
}
