
state={
	id=183
	name="STATE_183"

	history={
		owner = PRC
		buildings = {
			infrastructure = 4

		}
		add_core_of = PRC

	}

	provinces={
		217 405 443 482 806 1067 1326 1446 1858 1859 2091 2158 2294 2391 2463 2476 2520 2523 2891 2895 3024 3030 3939 3942 4012 4045 4175 4927 5351 5625 5667 5738 5814 5832 6191 6213 6587 6705 7052 7163 7282 7306 7397 7782 8147 8365 8599 8696 9001 9385 10048 10081 10135 10166 10174 10177 10195 10239 10241 10270 10278 10285 10314 10318 10319 10321 10346 10347 10350 10380 10461 
	}
	manpower=322900
	buildings_max_level_factor=1.000
	state_category=town
}
