
state={
	id=187
	name="STATE_187"

	history={
		owner = USA
		buildings = {
			infrastructure = 4

		}
		add_core_of = USA

	}

	provinces={
		131 273 687 726 1125 1883 3234 4239 5794 6499 6542 6986 9231 10146 10192 10206 10224 10266 10312 
	}
	manpower=322900
	buildings_max_level_factor=1.000
	state_category=town
}
