
state={
	id=198
	name="STATE_198"

	history={
		owner = EUR
		buildings = {
			infrastructure = 4

		}
		add_core_of = EUR

	}

	provinces={
		1118 2651 2805 4004 4252 4310 6137 6413 7457 8202 9291 9310 11423 11429 11523 
	}
	manpower=322900
	buildings_max_level_factor=1.000
	state_category=town
}
