state={
	id=219
	name="STATE_219"
	manpower = 322900
	
	state_category = town

	history={
		owner = JAP
		buildings = {
			infrastructure = 4
		}
		add_core_of = JAP
	}

	provinces={
		96 4288 4392 6884 7447 11610
	}
}