
state={
	id=240
	name="STATE_240"

	history={
		owner = PRC
		buildings = {
			infrastructure = 4

		}
		add_core_of = PRC

	}

	provinces={
		1729 2072 2120 2778 3597 3613 3693 5422 5859 7646 7847 12017 12194 12202 12295 
	}
	manpower=322900
	buildings_max_level_factor=1.000
	state_category=town
}
