
state={
	id=243
	name="STATE_243"

	history={
		owner = PER
		buildings = {
			infrastructure = 4

		}
		add_core_of = PER

	}

	provinces={
		266 1238 1392 1422 2212 2524 3748 3989 5838 6221 6832 7365 8088 8137 8960 9099 12040 12086 12092 12163 12305 
	}
	manpower=322900
	buildings_max_level_factor=1.000
	state_category=town
}
