
state={
	id=258
	name="STATE_258"

	history={
		owner = RAJ
		buildings = {
			infrastructure = 4

		}
		add_core_of = RAJ

	}

	provinces={
		148 279 503 1155 1251 1328 1391 1438 1489 1614 1635 1715 2013 2410 2465 2723 3309 3770 4237 4423 4571 4583 4779 4914 5441 6759 7181 7527 7832 9380 12226 12258 12274 12293 12312 12336 12352 12387 12393 12404 12459 12499 
	}
	manpower=322900
	buildings_max_level_factor=1.000
	state_category=town
}
