
state={
	id=269
	name="STATE_269"

	history={
		owner = RAJ
		buildings = {
			infrastructure = 4

		}
		add_core_of = RAJ

	}

	provinces={
		751 1773 2261 3375 3453 3461 3677 4586 5486 6460 6505 6740 6885 7849 9086 9179 9186 12436 12444 12532 
	}
	manpower=322900
	buildings_max_level_factor=1.000
	state_category=town
}
