
state={
	id=272
	name="STATE_272"

	history={
		owner = RUS
		buildings = {
			infrastructure = 4

		}
		add_core_of = RUS

	}

	provinces={
		278 300 866 1168 1176 2028 2171 3128 3708 4037 4414 4622 4688 4891 5014 5086 5219 5552 5890 5901 5919 6060 6154 6226 6354 6371 7281 7296 7622 7978 7990 8042 8063 8328 12323 12334 12342 12401 12441 12442 12455 12482 12522 12530 12569 12572 12637 12685 12731 12762 12768 12777 
	}
	manpower=322900
	buildings_max_level_factor=1.000
	state_category=town
}
