
state={
	id=306
	name="STATE_306"

	history={
		owner = USA
		buildings = {
			infrastructure = 4

		}
		add_core_of = USA

	}

	provinces={
		458 648 1380 2162 2771 3583 4167 5263 5303 6674 7359 7406 7626 7960 8921 11517 11560 11589 11604 11607 11664 11669 
	}
	manpower=0
	buildings_max_level_factor=1.000
}
