state={
	id=307
	name="STATE_307"
	manpower=1500000

	history={
		owner = USA
		buildings = {
			infrastructure = 4

		}
		add_core_of = USA

	}

	provinces={
		20 123 548 644 680 1400 1437 1895 1963 2224 3705 3853 4118 4222 4425 5030 5311 5565 5666 5848 5873 6084 7366 7647 8012 8345 8354 8370 11347 11402 11438 11454 11532 11545 11556 11580 11623 11652 11667 11704 11710 
	}
	manpower=0
	buildings_max_level_factor=1.000
}
