state={
	id=311
	name="STATE_311"
	manpower=1500000

	history={
		owner = USA
		buildings = {
			infrastructure = 4

		}
		add_core_of = USA

	}

	provinces={
		400 437 2470 2698 2861 4126 5079 5121 5264 6232 6594 6860 8081 10658 10661 10746 10756 10764 10794 10818 10863 
	}
	manpower=0
	buildings_max_level_factor=1.000
}
