state={
	id=317
	name="STATE_317"
	manpower=1500000

	history={
		owner = USA
		buildings = {
			infrastructure = 4

		}
		add_core_of = USA

	}
	provinces={
		1567 1586 1921 2119 2361 3586 3694 4311 4443 5670 6113 6812 7056 7971 10550 10602 10653 
	}
	manpower=0
	buildings_max_level_factor=1.000
}
