state={
	id=324
	name="STATE_324"
	manpower=1500000

	history={
		owner = USA
		buildings = {
			infrastructure = 4

		}
		add_core_of = USA

	}
	provinces={
		426 1597 1804 1894 2266 3072 3197 3343 4043 4463 5022 5874 6710 7933 8056 9318 10253 10262 10280 10315 10374 
	}
	manpower=0
	buildings_max_level_factor=1.000
}
