state={
	id=337
	name="STATE_337"
	manpower=1500000

	history={
		owner = USA
		buildings = {
			infrastructure = 4

		}
		add_core_of = USA

	}
	provinces={
		269 542 2069 3376 3467 4204 4615 5236 6380 6743 7693 8508 9407 10982 11019 11033 11046 11117 11125 
	}
	manpower=0
	buildings_max_level_factor=1.000
}
