state={
	id=338
	name="STATE_338"
	manpower=1500000

	history={
		owner = USA
		buildings = {
			infrastructure = 4

		}
		add_core_of = USA

	}
	provinces={
		90 243 264 445 1916 2196 2800 3587 3630 4155 4315 4499 4587 4859 5162 5649 5967 6278 6823 7624 8275 8863 8936 9459 11266 11291 11323 11358 11399 11420 11483 
	}
	manpower=0
	buildings_max_level_factor=1.000
}
