state={
	id=342
	name="STATE_342"
	manpower=1500000

	history={
		owner = USA
		buildings = {
			infrastructure = 4

		}
		add_core_of = USA

	}
	provinces={
		1499 1793 2382 2528 2719 2761 2901 3692 5072 5185 5216 5478 5680 5775 5973 6368 8325 8641 9015 11576 11611 11647 11684 11689 11697 11733 14104 14105 14106 
	}
	manpower=0
	buildings_max_level_factor=1.000
}
