state={
	id=355
	name="STATE_355"
		history={
		owner = RUS
		buildings = {
			infrastructure = 4

		}
		add_core_of = RUS

	}
	provinces={
		744 1344 2499 2708 4031 4948 6658 7354 8011 8261 8948 9190 9223 10369 10498 10694 
	}
	manpower=0
	buildings_max_level_factor=1.000
}
