state={
	id=375
	name="STATE_375"
	history={
		owner = ENG
		buildings = {
			infrastructure = 4

		}
		add_core_of = ENG

	}
	provinces={
		233 476 777 1334 2022 2305 2663 2967 3497 4032 4202 4558 4656 4752 4804 4848 5194 5844 7717 7803 8934 9957 9971 10040 10055 10067 10080 10157 
	}
	manpower=0
	buildings_max_level_factor=1.000
}
