state={
	id=398
	name="STATE_398"
		history={
		owner = RUS
		buildings = {
			infrastructure = 4

		}
		add_core_of = RUS

	}
	provinces={
		599 1432 2693 3700 4893 5272 5389 6129 6134 6857 6864 7739 8404 11869 11917 11995 12048 12058 12085 12112 12128 12146 
	}
	manpower=0
	buildings_max_level_factor=1.000
}
