state={
	id=426
	name="STATE_426"
	history={
		owner = PRC
		add_core_of = PRC
	}
	provinces={
		752 1158 1358 1684 2199 2359 3888 4107 5578 6867 7064 8114 8468 8897 9239 9446 10938 11098 
	}
	manpower=0
	buildings_max_level_factor=1.000
}
