state={
	id=432
	name="STATE_432"
	history={
		owner = PRC
		add_core_of = PRC
	}
	provinces={
		62 198 289 981 1194 1950 2495 2566 2858 3244 4119 4407 6219 6855 6982 7818 7946 7947 8216 8560 12314 12327 12354 12379 12388 12543 12558 
	}
	manpower=0
	buildings_max_level_factor=1.000
}
