state={
	id=441
	name="STATE_441"
	history={
		owner = INS
		buildings = {
			infrastructure = 4

		}
		add_core_of = INS

	}
	provinces={
		150 515 2938 3161 4156 4238 4285 4727 5168 5445 5522 5948 6032 6480 6483 7291 8224 8337 8781 10041 10082 10110 10122 10149 10181 10221 10242 14071 
	}
	manpower=0
	buildings_max_level_factor=1.000
}
