state={
	id=452
	name="STATE_452"
	history={
		owner = AFR
		buildings = {
			infrastructure = 4

		}
		add_core_of = AFR

	}
	provinces={
		204 301 319 444 588 851 953 1259 1329 1837 2080 2747 2979 3074 3151 3355 3792 3898 3918 5149 5469 6936 7213 7225 7304 7516 8183 8555 8683 8807 9241 10501 10556 10660 10790 10822 10866 10878 10935 10967 
	}
	manpower=0
	buildings_max_level_factor=1.000
}
