state={
	id=454
	name="STATE_454"
	history={
		owner = AFR
		buildings = {
			infrastructure = 4

		}
		add_core_of = AFR

	}
	provinces={
		115 120 469 504 786 1065 1282 1478 1591 1600 3077 3167 3821 4169 4818 5375 5580 5672 6836 7274 7536 9307 9444 12309 12341 12410 12413 12502 12503 12506 
	}
	manpower=0
	buildings_max_level_factor=1.000
}
