state={
	id=462
	name="STATE_462"
	history={
		owner = CAN
		buildings = {
			infrastructure = 1
		}
		add_core_of = CAN
	}
	state_category = pastoral
	provinces={
		286 430 658 702 1016 1218 1660 1799 1817 2281 2713 2725 3434 3736 4445 4481 5115 5439 5520 5703 6702 8182 8415 8870 9014 9329 9392 11737 11804 11807 11845 11867 11877 11891 11903 11923 11928 11955 11958 11961 12021 
	}
	manpower=0
	buildings_max_level_factor=1.000
}
