state={
	id=490
	name="STATE_490"
	history={
		owner = SAU
		buildings = {
			infrastructure = 1
		}
		add_core_of = SAU
	}
	state_category = pastoral
	provinces={
		105 222 237 324 576 669 1459 1803 1960 2973 3194 3593 3687 4342 4629 5020 5076 5653 5858 6997 7471 7483 7555 7824 7910 8153 8251 8266 8407 8699 8747 9208 9453 10781 10827 10836 10872 10886 10903 10917 10930 10946 10960 11099 
	}
	manpower=0
	buildings_max_level_factor=1.000
}
