state={
	id=496
	name="STATE_496"
	history={
		owner = JAP
		buildings = {
			infrastructure = 1
		}
		add_core_of = JAP
	}
	state_category = pastoral
	provinces={
		7 899 1054 1124 1710 2230 2480 3400 4574 4677 5446 5531 6927 7041 7218 8201 8462 8755 9020 11419 11498 11501 11524 11526 11527 11546 11579 11688 
	}
	manpower=0
	buildings_max_level_factor=1.000
}
