state={
	id=505
	name="STATE_505"
	history={
		owner = JAP
		buildings = {
			infrastructure = 1
		}
		add_core_of = JAP
	}
	state_category = pastoral
	provinces={
		1 189 317 980 1180 1559 1845 2041 2289 2867 2950 3127 4076 4224 4792 5137 5206 5886 5895 6020 6748 6762 7012 9085 9111 9425 10846 10911 10943 11064 11072 11086 11135 
	}
	manpower=0
	buildings_max_level_factor=1.000
}
