state={
	id=519
	name="STATE_519"
	history={
		owner = JAP
		buildings = {
			infrastructure = 1
		}
		add_core_of = JAP
	}
	state_category = pastoral
	provinces={
		934 1339 2537 3624 4370 5080 5135 5249 5905 6085 6195 7155 7703 8274 10034 10065 10201 10282 
	}
	manpower=0
	buildings_max_level_factor=1.000
}
