state={
	id=521
	name="STATE_521"
	history={
		owner = BRA
		buildings = {
			infrastructure = 1
		}
		add_core_of = BRA
	}
	state_category = pastoral
	provinces={
		107 355 505 964 1120 1936 2226 2233 2505 4753 4812 5693 5978 6421 6477 6778 7022 7620 7748 8392 8512 9081 9149 9395 9585 9591 9602 9632 9669 9701 9707 
	}
	manpower=0
	buildings_max_level_factor=1.000
}
