state={
	id=523
	name="STATE_523"
	history={
		owner = BRA
		buildings = {
			infrastructure = 1
		}
		add_core_of = BRA
	}
	state_category = pastoral
	provinces={
		1188 1802 3000 4572 4789 5038 5436 5710 7071 7800 9598 9636 9641 9656 9688 9718 9747 
	}
	manpower=0
	buildings_max_level_factor=1.000
}
