state={
	id=565
	name="STATE_565"
	provinces={
		26 98 1821 3251 3286 3403 3750 4250 4418 4599 4886 5291 5765 6374 6721 7465 8579 8900 8959 11295 11310 11441 11466 
	}
	manpower=0
	buildings_max_level_factor=1.000
}
