state={
	id=575
	name="STATE_575"
	history={
		owner = EUR
		buildings = {
			infrastructure = 1
		}
		add_core_of = EUR
	}
	state_category = pastoral
	provinces={
		1146 1941 2100 2231 4070 4085 4625 5310 5525 5708 6379 6385 6775 7204 7566 8648 10393 10526 10545 
	}
	manpower=0
	buildings_max_level_factor=1.000
}
