
state={
	id=581
	name="STATE_581"
	history={
		owner = EUR
		buildings = {
			infrastructure = 1
		}
		add_core_of = EUR
	}
	state_category = pastoral
	provinces={
		733 1198 1206 2799 3664 4668 4879 7429 7474 8225 8314 9266 10961 11016 11110 11115 11142 
	}
	manpower=0
	buildings_max_level_factor=1.000
}
