state={
	id=595
	name="STATE_595"
	history={
		owner = EUR
		buildings = {
			infrastructure = 1
		}
		add_core_of = EUR
	}
	state_category = pastoral
	provinces={
		1487 1783 1836 1898 1954 2360 2518 3422 3823 4153 6019 6404 6579 6764 7720 7969 8293 11625 11634 11683 11696 11750 
	}
	manpower=0
	buildings_max_level_factor=1.000
}
