state={
	id=604
	name="STATE_604"
	history={
		owner = EUR
		buildings = {
			infrastructure = 1
		}
		add_core_of = EUR
	}
	state_category = pastoral
	provinces={
		146 240 456 1301 1807 2082 2393 2770 3412 3970 4333 4780 4889 5579 5929 5953 6520 7173 7339 8205 8810 9061 9304 12271 12278 12292 12366 12402 12477 
	}
	manpower=0
	buildings_max_level_factor=1.000
}
