state={
	id=620
	name="STATE_620"
	provinces={
		745 2249 2433 2995 3052 3084 3498 3562 3598 4109 4472 5100 5245 6166 6894 6934 7088 7268 7772 8199 8547 8800 9388 12101 12154 12221 12269 12273 
	}
	manpower=0
	buildings_max_level_factor=1.000
}
