state={
	id=86
	name="STATE_86"
	history={
		owner = AST
		add_core_of = AST
	}
	provinces={
		9182 
	}
	history={
		owner = AST
		buildings = {
			infrastructure = 1

		}
		add_core_of = AST

	}
	manpower=0
	buildings_max_level_factor=1.000
}
